{
	"setupEusipco2022": {
		"remark": "",

		"m": 100,
		"n": 500,

		"dictionaries": [
			"gaussian 0.",
			"uniform",
			"toeplitz"
		],
		"normalize": true,

		"y_model": "unit-sphere",

		"n_rep": 200,

		"list_ratio_lbd": [
			0.3, 
			0.5, 
			0.8
		],

		"rule_budget": "HolderDomeTest",
		"precision": 1e-7,

		"algorithms": ["Fista"],

		"screening_rules": ["None", "GapSphereTest", "GapDomeTest", "HolderDomeTest"]
	},

	"setupTest": {
		"remark": "",

		"m": 5,
		"n": 8,

		"dictionaries": [
			"gaussian 0.",
			"uniform",
			"toeplitz"
		],
		"normalize": true,

		"y_model": "unit-sphere",

		"n_rep": 5,

		"list_ratio_lbd": [
			0.3, 
			0.5, 
			0.8
		],

		"rule_budget": "HolderDomeTest",
		"precision": 1e-3,

		"algorithms": ["Fista"],

		"screening_rules": ["None", "GapSphereTest", "GapDomeTest", "HolderDomeTest"]
	}
}